…
``` r
# saves the returned code to the clipboad
copy_that("pivot_longer")
#> [1] "ðŸˆ You are ready to paste!"
```

If the code is based on implemented data â€“ as all example in provided
data â€“ you can see how it works just by pasting it into your console.

``` r
relig_income %>% 
  pivot_longer(!religion, names_to = 'income', values_to = 'count')
#> # A tibble: 180 x 3
#>    religion income             count
#>    <chr>    <chr>              <dbl>
#>  1 Agnostic <$10k                 27
#>  2 Agnostic $10-20k               34
#>  3 Agnostic $20-30k               60
#>  4 Agnostic $30-40k               81
#>  5 Agnostic $40-50k               76
#>  6 Agnostic $50-75k              137
#>  7 Agnostic $75-100k             122
#>  8 Agnostic $100-150k            109
#>  9 Agnostic >150k                 84
#> 10 Agnostic Don't know/refused    96
#> # ... with 170 more rows
```
…
``` r
copy_that("bivat")
#>[1] "ðŸ’© Sooorry, I've got no idea what you are looking for!"
```

I started to create this package because I search within my old files to
often, especially for `ggplot` commands, which is why most commands from
the `ggplot2` cheat sheet are already included in the data.

``` r
ccc %>% 
  filter(package == "ggplot2") %>% 
  arrange(fct)
#> # A tibble: 32 x 3
#>    package fct           code                                                   
#>    <chr>   <chr>         <chr>                                                  
#>  1 ggplot2 annotate      "ggplot(mtcars, aes(x=mpg)) +   \r\n  geom_histogram(c~
#>  2 ggplot2 geom_abline   "ggplot(mpg, aes(cty, hwy))+\r\n  geom_point()+\r\n  g~
#>  3 ggplot2 geom_area     "ggplot(mpg, aes(hwy))+\r\n  geom_area(stat = \"bin\")"
#>  4 ggplot2 geom_bar      "ggplot(data=mpg, aes(x=class)) + geom_bar()"          
#>  5 ggplot2 geom_boxplot  "ggplot(diamonds, aes(x=color, y=carat, fill=color)) +~
#>  6 ggplot2 geom_col      "ggplot(diamonds, aes(x=color, y=carat)) +\r\n  geom_c~
#>  7 ggplot2 geom_count    "ggplot(diamonds, aes(cut, color))+\r\n  geom_count()" 
#>  8 ggplot2 geom_crossbar "iris %>%\r\n  group_by(Species) %>% \r\n  summarise(m~
#>  9 ggplot2 geom_density  "ggplot(mtcars, aes(x=mpg)) + geom_density(alpha=.2, f~
#> 10 ggplot2 geom_density  "ggplot(mpg, aes(hwy))+\r\n  geom_density(kernel = \"g~
#> # ... with 22 more rows
```
…
